<svg width="123" height="81" viewBox="0 0 123 81" fill="none" xmlns="http://www.w3.org/2000/svg">
<path d="M65.1523 13.881C65.1803 13.797 65.2223 13.7061 65.2712 13.6152C65.3272 13.5173 65.3831 13.4334 65.4391 13.3494C65.502 13.2655 65.558 13.1816 65.6139 13.1117C65.6769 13.0347 65.7188 12.9928 65.7468 12.9648C65.8377 12.8739 65.9426 12.8179 66.0475 12.783C66.1664 12.748 66.3203 12.727 66.5021 12.72C66.607 12.72 66.6979 12.72 66.7819 12.72C66.8588 12.72 66.9287 12.72 66.9987 12.72H67.3553V15.6434C67.3553 15.8042 67.3553 15.9581 67.3553 16.1049V16.5106C67.3413 16.6364 67.3413 16.7344 67.3413 16.8113C67.3413 16.8952 67.3413 16.9791 67.3413 17.07C67.3413 17.154 67.3343 17.2379 67.3274 17.3078C67.3204 17.3778 67.3134 17.4407 67.2994 17.4967C67.2924 17.5316 67.2854 17.5456 67.2784 17.5456C67.1735 17.6575 67.0756 17.7274 66.9777 17.7554C66.8588 17.7904 66.7329 17.8184 66.6 17.8323L66.4392 17.8533V18.2799H69.4534V17.8673L69.3065 17.8393C69.1946 17.8184 69.0618 17.7904 68.9219 17.7484C68.81 17.7205 68.7331 17.6645 68.6701 17.5736C68.6701 17.5736 68.6352 17.5246 68.6282 17.3708C68.6212 17.2309 68.6142 17.091 68.6142 16.9372V13.804C68.6142 13.5523 68.6142 13.3145 68.6142 13.0837C68.6142 12.9438 68.6142 12.8249 68.6142 12.72H68.9708C69.0478 12.72 69.1177 12.72 69.1946 12.72C69.2716 12.72 69.3555 12.72 69.4674 12.72C69.6562 12.72 69.8171 12.741 69.936 12.776C70.0409 12.8039 70.1388 12.8599 70.2367 12.9508C70.2717 12.9858 70.3136 13.0347 70.3696 13.0977C70.4255 13.1746 70.4885 13.2515 70.5444 13.3425C70.6074 13.4264 70.6633 13.5243 70.7192 13.6222C70.7752 13.7201 70.8242 13.818 70.8661 13.9089L70.936 14.0558L71.3137 13.9299L70.992 12.0137L70.7962 12.0696C70.6773 12.1046 70.5584 12.1326 70.4465 12.1605C70.3416 12.1815 70.2017 12.1955 70.0409 12.2025C69.8311 12.2025 69.6492 12.2025 69.4814 12.2025H69.0058C68.852 12.2165 68.6981 12.2165 68.5372 12.2165H66.9847C66.8308 12.2165 66.6769 12.2165 66.5161 12.2165C66.3552 12.2165 66.1664 12.2165 65.9636 12.2025C65.7748 12.2025 65.6279 12.1885 65.523 12.1745C65.4181 12.1605 65.3062 12.1396 65.1873 12.1116L64.9985 12.0696L64.6978 13.9299L65.0894 14.0558L65.1453 13.888L65.1523 13.881Z" fill="#5E4637"/>
<path d="M74.7477 17.8318L74.5798 17.8178C74.4819 17.8108 74.384 17.7828 74.2791 17.7409C74.1882 17.7059 74.1252 17.6569 74.0763 17.594C74.0763 17.594 74.0413 17.545 74.0413 17.3912C74.0413 17.2513 74.0343 17.1044 74.0343 16.9506V15.412H76.9017V16.496C76.9017 16.6778 76.9017 16.8597 76.8947 17.0415C76.8947 17.1044 76.8947 17.1674 76.8947 17.2373C76.8947 17.3003 76.8947 17.3702 76.8807 17.4262C76.8807 17.4821 76.8667 17.538 76.8597 17.58C76.8597 17.601 76.8597 17.615 76.8597 17.608C76.8527 17.622 76.8108 17.6709 76.6779 17.7269C76.559 17.7758 76.4052 17.8108 76.2233 17.8248L76.0555 17.8388V18.2654H78.9229V17.8388L78.762 17.8178C78.6361 17.8038 78.5172 17.7758 78.4123 17.7409C78.3284 17.7129 78.2654 17.6639 78.2165 17.587C78.2165 17.587 78.1955 17.545 78.1885 17.4052C78.1815 17.2793 78.1745 17.1394 78.1745 16.9856C78.1745 16.7897 78.1745 16.6149 78.1745 16.454C78.1745 16.2932 78.1745 16.1393 78.1745 15.9925V13.3769C78.1745 13.2929 78.1745 13.216 78.1815 13.1391C78.1815 13.0621 78.1955 12.9922 78.2025 12.9293C78.2095 12.8663 78.2235 12.8453 78.2305 12.8314C78.2724 12.7614 78.3354 12.7055 78.4263 12.6635C78.5312 12.6146 78.6431 12.5866 78.755 12.5726L78.9158 12.5516V12.132H76.0974V12.5656H76.2723C76.3842 12.5796 76.4961 12.5936 76.608 12.6285C76.6919 12.6495 76.7688 12.7195 76.8388 12.8174C76.8667 12.8593 76.8807 12.9223 76.8877 12.9992C76.8947 13.1041 76.9017 13.209 76.9087 13.3069C76.9087 13.4818 76.9157 13.6356 76.9157 13.7755V14.8805H74.0483V14.2511C74.0483 14.0552 74.0483 13.8454 74.0483 13.6356C74.0483 13.4188 74.0483 13.223 74.0623 13.0342C74.0623 12.9433 74.0833 12.8733 74.1182 12.8174C74.1532 12.7614 74.1952 12.7195 74.2441 12.6845C74.3001 12.6495 74.356 12.6215 74.426 12.6076C74.5099 12.5866 74.5798 12.5726 74.6498 12.5656L74.8036 12.5446V12.125H72.0062V12.5446L72.167 12.5656C72.2929 12.5796 72.4048 12.6076 72.5027 12.6425C72.5866 12.6705 72.6496 12.7195 72.7125 12.7894C72.7195 12.7964 72.7335 12.8174 72.7475 12.8733C72.7615 12.9293 72.7755 12.9992 72.7825 13.0691C72.7895 13.1461 72.7965 13.23 72.7965 13.3209V15.6358C72.7965 15.7966 72.7965 15.9505 72.7965 16.0974V16.517C72.7825 16.6499 72.7825 16.7478 72.7825 16.8247C72.7825 16.9086 72.7825 16.9925 72.7755 17.0835C72.7755 17.1744 72.7615 17.2583 72.7545 17.3352C72.7475 17.4052 72.7405 17.4681 72.7265 17.5241C72.7195 17.566 72.7125 17.58 72.7125 17.58C72.6636 17.629 72.5936 17.6779 72.4957 17.7199C72.3838 17.7688 72.2649 17.7968 72.146 17.8178L71.9922 17.8388V18.2584H74.7617V17.8318H74.7477Z" fill="#5E4637"/>
<path d="M85.7204 16.4199L85.3218 16.315L85.2518 16.4339C85.1189 16.6577 84.9931 16.8465 84.8672 17.0004C84.7483 17.1542 84.6224 17.2801 84.4965 17.385C84.3776 17.4829 84.2447 17.5668 84.1188 17.6158C83.986 17.6717 83.8391 17.7067 83.6852 17.7277C83.5314 17.7487 83.3845 17.7627 83.2516 17.7697C83.1118 17.7697 82.9929 17.7767 82.902 17.7767C82.6922 17.7767 82.5033 17.7627 82.3285 17.7277C82.1327 17.6927 82.0977 17.6438 82.0977 17.6438C82.0767 17.6158 82.0487 17.5459 82.0348 17.385C82.0208 17.2381 82.0138 17.0773 82.0068 16.9164C82.0068 16.8605 82.0068 16.7906 82.0068 16.7136C82.0068 16.6367 82.0068 16.5598 82.0068 16.4758V15.5177C82.0068 15.4618 82.0068 15.4128 82.0068 15.3709H82.2166C82.2655 15.3709 82.3215 15.3709 82.3704 15.3709L82.5733 15.3848C82.7201 15.3918 82.846 15.4198 82.9439 15.4618C83.0488 15.5037 83.1328 15.5527 83.2027 15.6086C83.2866 15.6856 83.3635 15.8045 83.4475 15.9653C83.5314 16.1332 83.5943 16.301 83.6363 16.4549L83.6713 16.5877H84.0909V13.7064H83.6643L83.6363 13.8462C83.6083 13.9861 83.5734 14.119 83.5314 14.2309C83.4964 14.3288 83.4475 14.4197 83.3915 14.4967C83.3356 14.5666 83.2656 14.6295 83.1817 14.6785C83.0908 14.7344 82.9719 14.7764 82.825 14.8114C82.7621 14.8254 82.6782 14.8393 82.5872 14.8463C82.4823 14.8533 82.3774 14.8603 82.2725 14.8673C82.1746 14.8673 82.0907 14.8743 82.0138 14.8743C82.0138 14.8393 82.0138 14.8044 82.0138 14.7554C82.0138 14.6715 82.0138 14.5596 82.0138 14.4197V13.9092C82.0138 13.5595 82.0138 13.2518 82.0278 12.986C82.0278 12.8112 82.0417 12.6923 82.0417 12.6154C82.0767 12.6154 82.1117 12.6154 82.1536 12.6084C82.6432 12.5734 83.0698 12.6084 83.3915 12.6433C83.6922 12.6783 83.8111 12.7203 83.8531 12.7413C84.2168 12.9161 84.6084 13.2658 85.035 13.7833L85.1259 13.8952L85.4896 13.7204L84.8182 12.1328H80.0066V12.5524L80.1605 12.5734C80.3003 12.5944 80.4122 12.6154 80.5032 12.6364C80.5591 12.6503 80.622 12.6923 80.685 12.7552C80.685 12.7552 80.699 12.7692 80.713 12.8322C80.727 12.8951 80.7409 12.9651 80.7479 13.049C80.7549 13.1399 80.7619 13.2308 80.7619 13.3287C80.7619 13.4266 80.7619 13.5245 80.7619 13.6225V15.6506C80.7619 15.8114 80.7619 15.9653 80.7619 16.1122V16.5318C80.7479 16.6647 80.7479 16.7626 80.7479 16.8395C80.7479 16.9234 80.7479 17.0074 80.7409 17.0913C80.7409 17.1752 80.727 17.2521 80.713 17.3221C80.699 17.399 80.685 17.4619 80.671 17.5179C80.657 17.5668 80.643 17.5808 80.643 17.5808C80.5871 17.6438 80.5102 17.6927 80.4192 17.7347C80.3143 17.7766 80.2024 17.8116 80.0835 17.8256L79.9297 17.8466V18.2662H85.2518L85.7414 16.4269L85.7204 16.4199Z" fill="#5E4637"/>
<path d="M109.506 48.4162C109.247 48.8498 108.995 49.2275 108.751 49.5352C108.513 49.8359 108.261 50.0947 108.009 50.3045C107.758 50.5073 107.499 50.6681 107.233 50.78C106.967 50.8919 106.667 50.9689 106.345 51.0108C106.044 51.0528 105.757 51.0738 105.485 51.0878C105.205 51.0948 104.981 51.1017 104.806 51.1017C104.394 51.1017 104.016 51.0738 103.666 51.0108C103.268 50.9409 103.142 50.836 103.107 50.78C103.03 50.6612 102.974 50.4653 102.953 50.1996C102.925 49.9058 102.911 49.5981 102.897 49.2764C102.897 49.1715 102.897 49.0456 102.89 48.8918C102.89 48.7449 102.883 48.591 102.883 48.4232V46.5629C102.883 46.3811 102.883 46.2272 102.897 46.1013H103.463C103.568 46.1013 103.666 46.1013 103.771 46.1083C103.876 46.1083 104.009 46.1223 104.163 46.1293C104.457 46.1503 104.722 46.1992 104.939 46.2902C105.156 46.3741 105.345 46.486 105.492 46.6119C105.666 46.7727 105.834 47.0245 106.002 47.3532C106.17 47.6889 106.296 48.0246 106.38 48.3393L106.415 48.4722H106.918V43.2409H106.408L106.38 43.3808C106.317 43.6606 106.247 43.9193 106.17 44.1431C106.1 44.3599 106.002 44.5487 105.876 44.7096C105.757 44.8635 105.604 45.0033 105.415 45.1152C105.219 45.2271 104.974 45.325 104.673 45.388C104.547 45.4159 104.38 45.4369 104.184 45.4509C103.981 45.4649 103.778 45.4789 103.568 45.4929C103.366 45.4999 103.191 45.5069 103.03 45.5069H102.89C102.89 45.4159 102.89 45.2831 102.883 45.1082C102.883 44.9404 102.876 44.7236 102.876 44.4578V43.4647C102.876 42.7864 102.883 42.1849 102.897 41.6744C102.911 41.2757 102.925 40.982 102.939 40.8002C103.03 40.7862 103.156 40.7792 103.303 40.7652C104.268 40.7023 105.1 40.7512 105.729 40.8351C106.31 40.9121 106.562 40.982 106.667 41.038C107.387 41.3876 108.177 42.08 109.009 43.1011L109.1 43.213L109.534 42.9962L108.352 40.1847H99.3233V40.6673L99.4771 40.6883C99.7569 40.7302 99.9807 40.7722 100.155 40.8142C100.302 40.8491 100.442 40.94 100.582 41.0869C100.603 41.1079 100.645 41.1638 100.687 41.3107C100.722 41.4436 100.743 41.5904 100.764 41.7583C100.778 41.9331 100.792 42.115 100.792 42.3038C100.792 42.4996 100.799 42.6884 100.799 42.8703V46.7937C100.799 47.1014 100.799 47.4021 100.792 47.6959L100.778 48.5071C100.778 48.7589 100.771 48.9547 100.771 49.1016C100.771 49.2624 100.771 49.4303 100.757 49.5911C100.75 49.752 100.729 49.9128 100.701 50.0597C100.673 50.2066 100.652 50.3464 100.617 50.4583C100.533 50.7031 100.232 50.9199 100.03 50.9968C99.8128 51.0878 98.9246 51.3535 98.0714 50.7381C97.7287 50.4933 97.3511 50.1226 96.9804 49.6051C96.7286 49.2554 96.4419 48.8498 96.1202 48.3952C95.7985 47.9406 95.5047 47.521 95.225 47.1224C95.0641 46.9056 94.8963 46.6958 94.7215 46.5139C94.6235 46.409 94.5256 46.3251 94.4207 46.2482C94.6725 46.1503 94.9173 46.0454 95.1481 45.9195C95.4768 45.7446 95.7705 45.5348 96.0223 45.2901C96.274 45.0453 96.4768 44.7586 96.6307 44.4368C96.7846 44.1081 96.8615 43.7375 96.8615 43.3319C96.8615 42.6814 96.7076 42.129 96.4069 41.6884C96.1062 41.2548 95.7076 40.9121 95.218 40.6673C94.7424 40.4225 94.2179 40.2687 93.6444 40.2267C93.092 40.1847 92.4555 40.1638 91.7492 40.1638H90.6442C90.1896 40.1638 89.735 40.1638 89.2804 40.1707C88.8259 40.1707 88.4202 40.1777 88.0635 40.1777H87.2383V40.6603L87.3922 40.6813C87.6649 40.7232 87.8957 40.7652 88.0845 40.8212C88.2454 40.8701 88.3992 40.968 88.5391 41.1079C88.5601 41.1289 88.6021 41.1848 88.644 41.3317C88.679 41.4646 88.7 41.6114 88.7209 41.7653C88.7349 41.9331 88.7489 42.108 88.7489 42.2968C88.7489 42.4856 88.7559 42.6745 88.7559 42.8563V45.381C87.2243 44.7516 85.343 43.3109 84.6227 40.0169V39.9609L84.4199 40.0169C84.1821 40.0868 83.9513 40.1428 83.7345 40.1917C83.5177 40.2337 83.238 40.2617 82.9093 40.2757C82.5106 40.2757 82.147 40.2756 81.8323 40.2826L80.9161 40.2966C80.6224 40.2966 80.3146 40.3036 79.9999 40.3036H76.9927C76.6989 40.3036 76.3912 40.3036 76.0765 40.2966C75.7618 40.2966 75.4051 40.2826 74.9995 40.2757C74.6218 40.2687 74.3281 40.2477 74.1253 40.2127C73.9225 40.1847 73.7057 40.1428 73.4609 40.0938L73.2791 40.0519L72.7476 43.3319L73.2021 43.4787L73.2581 43.3109C73.321 43.136 73.398 42.9542 73.5029 42.7654C73.6148 42.5696 73.7267 42.3947 73.8386 42.2339C73.9575 42.066 74.0763 41.9122 74.1812 41.7653C74.2861 41.6324 74.3771 41.5275 74.454 41.4646C74.6568 41.2757 74.8736 41.1429 75.1044 41.0729C75.3492 40.996 75.6639 40.954 76.0415 40.94C76.2444 40.94 76.4192 40.94 76.5801 40.933C76.7339 40.933 76.8738 40.9261 77.0067 40.9261H77.8739V46.7587C77.8739 47.0664 77.8739 47.3672 77.8669 47.6539L77.8529 48.4442C77.8529 48.682 77.8459 48.8778 77.8459 49.0246C77.8459 49.1855 77.8459 49.3603 77.8389 49.5282C77.8389 49.696 77.8249 49.8569 77.8109 50.0038C77.7969 50.1436 77.776 50.2765 77.748 50.3884C77.72 50.5003 77.692 50.5423 77.6711 50.5632C77.4543 50.808 77.2305 50.9619 77.0137 51.0248C76.7759 51.0948 76.5171 51.1437 76.2513 51.1717L76.0905 51.1927V51.6822H81.5875V51.1997L81.4406 51.1717C81.2168 51.1297 80.958 51.0668 80.6783 50.9898C80.4265 50.9199 80.2377 50.787 80.0978 50.5912C80.0559 50.5353 79.9999 50.4024 79.9859 50.1087C79.9719 49.8429 79.965 49.5562 79.965 49.2554V43.199C79.965 42.7164 79.965 42.2478 79.972 41.8072C79.972 41.4576 79.9719 41.1638 79.9789 40.9261H80.8462C80.993 40.9261 81.1399 40.9261 81.2798 40.933C81.4266 40.933 81.6085 40.933 81.8043 40.94C82.1889 40.947 82.5106 40.989 82.7554 41.0519C82.9862 41.1149 83.203 41.2338 83.4058 41.4226C83.4827 41.4855 83.5737 41.5904 83.6786 41.7303C83.7905 41.8772 83.9094 42.038 84.0282 42.2129C84.1471 42.3807 84.7206 43.4368 84.7206 43.4368C84.7206 43.4368 85.6857 45.8006 88.7559 46.3461V46.7727C88.7559 47.0804 88.7559 47.3811 88.7489 47.6749L88.7349 48.4861C88.7349 48.7379 88.7279 48.9337 88.7279 49.0806C88.7279 49.2414 88.7279 49.4093 88.714 49.5841C88.7 49.759 88.693 49.9198 88.672 50.0737C88.658 50.2206 88.637 50.3534 88.6021 50.4653C88.5741 50.5842 88.5321 50.6472 88.5111 50.6751C88.3922 50.815 88.2314 50.9199 88.0216 50.9898C87.7908 51.0668 87.546 51.1297 87.2943 51.1647L87.1474 51.1857V51.6612H92.5604V51.1647H92.3926C91.994 51.1367 91.6792 51.0668 91.4624 50.9409C91.2456 50.815 91.0988 50.6961 91.0288 50.5842C90.9449 50.4583 90.896 50.2905 90.882 50.0877C90.868 49.8499 90.861 49.5701 90.854 49.2345C90.84 48.8918 90.84 48.4791 90.84 47.9826V46.416C90.9099 46.416 90.9729 46.416 91.0288 46.416C91.1198 46.416 91.2596 46.437 91.4554 46.472C91.7002 46.5209 91.931 46.6328 92.1548 46.8217C92.3926 47.0245 92.6234 47.2413 92.8262 47.4651C93.078 47.7518 93.2948 48.0106 93.4766 48.2414C93.6584 48.4721 93.8263 48.6959 93.9871 48.9197C94.141 49.1435 94.3018 49.3743 94.4487 49.6051C94.6026 49.8359 94.7774 50.1017 94.9802 50.3954C95.1481 50.6332 95.2739 50.808 95.3509 50.9269C95.4348 51.0528 95.5047 51.1507 95.5607 51.2136C95.6166 51.2766 95.6656 51.3325 95.7076 51.3815C95.7495 51.4304 95.8195 51.5004 95.9174 51.5983L95.9663 51.6472H109.191L110.058 48.3882L109.583 48.2623L109.513 48.3812L109.506 48.4162ZM93.7144 45.2131C93.4906 45.374 93.2108 45.5069 92.8961 45.6048C92.5604 45.7167 92.2108 45.7866 91.8541 45.8216C91.5464 45.8495 91.2107 45.8705 90.861 45.8705C90.861 45.8705 90.847 45.8705 90.84 45.8705V44.3459C90.84 43.9263 90.84 43.4857 90.847 43.0311C90.847 42.5765 90.861 42.1709 90.868 41.8142L90.889 41.2617C90.889 41.1359 90.896 41.038 90.9029 40.968C90.9029 40.9051 90.9169 40.8561 90.9239 40.8142C90.9239 40.8002 90.9239 40.7862 90.9309 40.7722C90.9799 40.7722 91.0428 40.7652 91.1128 40.7582C91.2456 40.7512 91.4205 40.7442 91.6373 40.7442C91.931 40.7442 92.2108 40.7722 92.4835 40.8212C92.7493 40.8701 93.001 40.947 93.2388 41.0519C93.7144 41.2757 94.078 41.5765 94.3228 41.9471C94.5676 42.3178 94.6865 42.7514 94.6865 43.2339C94.6865 43.4927 94.6515 43.7515 94.5816 43.9893C94.5117 44.227 94.4068 44.4508 94.2669 44.6606C94.127 44.8635 93.9382 45.0523 93.7144 45.2131Z" fill="#5E4637"/>
<path d="M70.775 22.9733C70.6631 23.0922 70.5372 23.2041 70.3974 23.309C70.2575 23.4139 70.0966 23.5048 69.9218 23.5817L69.754 23.6517L69.9568 24.0853C69.712 24.6448 69.4532 25.2392 69.1805 25.8826C68.8937 26.547 68.607 27.2114 68.3203 27.8618L67.474 29.7781C67.2013 30.4005 66.9495 30.946 66.7327 31.4356C66.4949 31.9531 66.2921 32.3447 66.1243 32.6105C65.9145 32.9462 65.8235 33.0581 65.7746 33.107C65.7676 33.114 65.7186 33.163 65.4809 33.2959C65.306 33.3938 65.0962 33.4637 64.8444 33.4917L64.6836 33.5127V34.0232H68.4112V33.5336L68.2573 33.5127C68.1244 33.4917 67.9776 33.4707 67.8237 33.4427C67.6838 33.4217 67.558 33.3798 67.4391 33.3308C67.3272 33.2819 67.2433 33.2259 67.1733 33.156C67.1174 33.1 67.0964 33.0371 67.0964 32.9462C67.0964 32.8063 67.1523 32.4986 67.4181 31.8342C67.565 31.4705 67.7118 31.1139 67.8587 30.7572C67.9916 30.4355 68.1314 30.0998 68.2713 29.7431H72.2367C72.3766 30.1068 72.5094 30.4565 72.6353 30.7852C72.7682 31.1558 72.8941 31.4915 72.999 31.7992C73.1039 32.1 73.1878 32.3587 73.2438 32.5615C73.3137 32.8063 73.3277 32.9182 73.3277 32.9742C73.3277 33.0721 73.2997 33.142 73.2368 33.198C73.1528 33.2749 73.0549 33.3378 72.943 33.3798C72.8241 33.4287 72.7053 33.4567 72.6004 33.4777C72.4954 33.4987 72.4325 33.5057 72.4045 33.5057H72.2297V34.0162H77.2021V33.4847H77.0343C76.8175 33.4707 76.6287 33.4287 76.4678 33.3518C76.307 33.2749 76.1671 33.191 76.0622 33.093C75.9503 32.9951 75.8594 32.8972 75.7964 32.8063C75.7335 32.7154 75.6845 32.6525 75.6705 32.6175L75.3279 31.8971C75.2299 31.6943 75.125 31.4286 75.0061 31.1139C74.7544 30.4635 74.5026 29.8061 74.2508 29.1417C73.9991 28.4773 73.7403 27.7849 73.4676 27.0716C73.2018 26.3582 72.9151 25.6169 72.6213 24.8476C72.3276 24.0783 72.0129 23.267 71.6912 22.4068L71.6492 22.2949H71.2995L71.2506 22.3858C71.2086 22.4558 71.1527 22.5467 71.0757 22.6516C71.0058 22.7565 70.9079 22.8684 70.803 22.9873L70.775 22.9733ZM68.558 29.0507L69.1595 27.6031C69.3763 27.0855 69.5721 26.617 69.754 26.2043C69.9358 25.7917 70.0827 25.4351 70.2085 25.1483C70.2435 25.0574 70.2855 24.9735 70.3134 24.8965C70.3764 25.0434 70.4393 25.2043 70.5093 25.3861C70.6491 25.7428 70.81 26.1344 70.9848 26.568C71.1597 26.9946 71.3345 27.4422 71.5233 27.9038C71.6772 28.2884 71.8241 28.6731 71.9779 29.0577H68.565L68.558 29.0507Z" fill="#5E4637"/>
<path d="M88.4412 23.1466C88.651 23.1956 88.8259 23.2935 88.9657 23.4334C88.9867 23.4543 89.0287 23.5103 89.0706 23.6502C89.1056 23.783 89.1266 23.9299 89.1476 24.0838C89.1616 24.2516 89.1756 24.4265 89.1756 24.6153C89.1756 24.8041 89.1825 24.9929 89.1825 25.1748V29.0982C89.1825 29.4059 89.1826 29.7066 89.1756 30.0004L89.1616 30.8116C89.1616 31.0634 89.1546 31.2592 89.1546 31.4061C89.1546 31.5669 89.1546 31.7348 89.1406 31.9096C89.1266 32.0845 89.1196 32.2453 89.0986 32.3992C89.0846 32.546 89.0637 32.6789 89.0357 32.7908C89.0077 32.9097 88.9727 32.9726 88.9448 33.0006C88.8329 33.1405 88.665 33.2454 88.4552 33.3153C88.2244 33.3923 87.9796 33.4552 87.7279 33.4972L87.574 33.5181V34.0007H92.9871V33.4972H92.8192C92.4136 33.4692 92.1059 33.3993 91.8821 33.2804C91.6163 33.1335 91.5044 33.0146 91.4555 32.9307C91.3715 32.8048 91.3226 32.6369 91.3086 32.4341C91.2946 32.1964 91.2876 31.9166 91.2806 31.5879C91.2806 31.4131 91.2806 31.2452 91.2736 31.0914C91.2736 30.9445 91.2666 30.7836 91.2666 30.6088V29.329H91.945C92.2737 29.329 92.6164 29.315 92.9591 29.287C93.3018 29.259 93.6515 29.2241 93.9941 29.1681C94.3368 29.1122 94.6725 29.0352 94.9802 28.9303C95.274 28.8254 95.5677 28.6786 95.8544 28.5037C96.1412 28.3219 96.3999 28.1051 96.6167 27.8603C96.8336 27.6085 97.0084 27.3148 97.1483 26.9931C97.2811 26.6644 97.3511 26.2937 97.3511 25.8881C97.3511 25.2377 97.1832 24.6572 96.8615 24.1747C96.5398 23.6991 96.1342 23.3215 95.6446 23.0627C95.1551 22.7969 94.6236 22.6221 94.0641 22.5522C93.5256 22.4822 92.8962 22.4473 92.1898 22.4473H91.4764C91.2037 22.4473 90.91 22.4473 90.5953 22.4543C89.9728 22.4682 89.3154 22.4543 88.7769 22.4682C88.5112 22.4682 88.2734 22.4752 88.0776 22.4752H87.5181V22.9648L87.6719 22.9858C87.9517 23.0277 88.2174 23.0767 88.4552 23.1326L88.4412 23.1466ZM92.0569 23.0557C92.3506 23.0557 92.6444 23.0767 92.9171 23.1187C93.1829 23.1606 93.4416 23.2305 93.6724 23.3355C94.148 23.5592 94.5326 23.8949 94.8264 24.3285C95.1131 24.7622 95.26 25.2657 95.26 25.8252C95.26 26.4336 95.0921 26.9931 94.7564 27.4827C94.4208 27.9722 93.9312 28.3219 93.2948 28.5387C92.9871 28.6436 92.6444 28.7135 92.2807 28.7415C91.966 28.7625 91.6163 28.7765 91.2526 28.7765V26.9721C91.2526 26.4756 91.2527 25.972 91.2596 25.4545C91.2596 24.937 91.2736 24.5034 91.2806 24.1467C91.2876 23.9089 91.3016 23.7341 91.3086 23.6012C91.3156 23.4753 91.3296 23.3774 91.3366 23.3075C91.3436 23.2515 91.3576 23.1956 91.3715 23.1606C91.3715 23.1396 91.3855 23.1187 91.3925 23.0977L91.5604 23.0767C91.6723 23.0627 91.8401 23.0557 92.0499 23.0557H92.0569Z" fill="#5E4637"/>
<path d="M108.827 30.7491L108.352 30.6232L108.282 30.7421C108.023 31.1757 107.771 31.5533 107.526 31.861C107.289 32.1618 107.037 32.4205 106.785 32.6303C106.533 32.8331 106.275 32.994 106.009 33.1059C105.743 33.2178 105.442 33.2947 105.121 33.3367C104.82 33.3786 104.533 33.3996 104.26 33.4136C103.981 33.4206 103.757 33.4276 103.582 33.4276C103.176 33.4276 102.792 33.3996 102.442 33.3367C102.043 33.2667 101.918 33.1618 101.883 33.1059C101.806 32.987 101.75 32.7912 101.729 32.5324C101.701 32.2387 101.687 31.931 101.673 31.6093C101.673 31.5044 101.673 31.3785 101.666 31.2246C101.666 31.0777 101.659 30.9239 101.659 30.756V28.8957C101.659 28.7139 101.659 28.5601 101.673 28.4412H102.239C102.344 28.4412 102.442 28.4412 102.547 28.4482C102.652 28.4482 102.785 28.4621 102.939 28.4691C103.232 28.4901 103.498 28.5391 103.715 28.63C103.932 28.7139 104.121 28.8258 104.267 28.9517C104.442 29.1125 104.61 29.3573 104.771 29.693C104.939 30.0287 105.065 30.3644 105.149 30.6791L105.184 30.812H105.687V25.5738H105.177L105.149 25.7137C105.086 25.9934 105.016 26.2522 104.939 26.476C104.869 26.6928 104.771 26.8816 104.652 27.0354C104.533 27.1893 104.379 27.3292 104.19 27.4411C103.995 27.553 103.75 27.6509 103.449 27.7138C103.323 27.7418 103.155 27.7628 102.96 27.7768C102.757 27.7908 102.554 27.8047 102.344 27.8117C102.141 27.8187 101.96 27.8257 101.806 27.8257H101.666C101.666 27.7348 101.666 27.6019 101.659 27.4341C101.659 27.2662 101.652 27.0494 101.652 26.7837V25.7906C101.652 25.1192 101.659 24.5108 101.673 24.0002C101.687 23.6016 101.701 23.3148 101.715 23.126C101.806 23.112 101.932 23.105 102.078 23.098C103.051 23.0351 103.876 23.0841 104.505 23.168C105.086 23.2449 105.337 23.3218 105.449 23.3708C106.17 23.7205 106.96 24.4128 107.792 25.4339L107.883 25.5458L108.317 25.336L107.128 22.5176H98.106V23.0071L98.2599 23.0281C98.5396 23.0701 98.7634 23.112 98.9383 23.154C99.0851 23.189 99.225 23.2799 99.3649 23.4267C99.3859 23.4477 99.4278 23.5037 99.4698 23.6505C99.5047 23.7834 99.5257 23.9303 99.5467 24.0911C99.5607 24.266 99.5747 24.4478 99.5747 24.6366C99.5747 24.8325 99.5817 25.0213 99.5817 25.2031V29.1265C99.5817 29.4343 99.5817 29.735 99.5747 30.0287L99.5607 30.84C99.5607 31.0917 99.5537 31.2876 99.5537 31.4344C99.5537 31.5953 99.5537 31.7631 99.5397 31.924C99.5327 32.0848 99.5117 32.2457 99.4838 32.3925C99.4558 32.5394 99.4278 32.6723 99.3998 32.7842C99.3719 32.8961 99.3369 32.959 99.3159 32.98C99.19 33.1269 99.0222 33.2388 98.8194 33.3227C98.6096 33.4066 98.3718 33.4766 98.127 33.5115L97.9731 33.5325V34.0151H107.967L108.841 30.7491H108.827Z" fill="#5E4637"/>
<path d="M118.304 22.4473V22.9368L118.458 22.9578C118.933 23.0277 119.304 23.1466 119.549 23.3075C119.787 23.4683 119.947 23.6711 120.045 23.9299C120.122 24.1257 120.164 24.4055 120.178 24.7621C120.185 25.1398 120.192 25.5314 120.192 25.9441V30.7417L112.954 22.4543H109.485V22.9438L109.639 22.9648C109.8 22.9858 109.974 23.0207 110.149 23.0627C110.31 23.1047 110.464 23.1746 110.604 23.2725C110.737 23.3634 110.863 23.4963 110.961 23.6642C111.066 23.832 111.128 24.0558 111.156 24.3146C111.163 24.6083 111.17 24.8601 111.17 25.0699V26.9581C111.17 27.6505 111.17 28.2939 111.156 28.9024C111.142 29.5038 111.128 30.0283 111.107 30.4689C111.086 31.0494 111.052 31.5599 111.017 31.9795C110.975 32.3712 110.891 32.6649 110.758 32.8607C110.632 33.0566 110.464 33.1964 110.24 33.2804C110.002 33.3713 109.765 33.4342 109.527 33.4622L109.373 33.4832V33.9727H113.618V33.4832L113.464 33.4622C113.052 33.4132 112.73 33.3363 112.499 33.2244C112.289 33.1195 112.136 32.9726 112.038 32.7698C111.947 32.588 111.884 32.2943 111.856 31.8956C111.828 31.483 111.814 31.0004 111.814 30.4829V24.4055C112.415 25.0699 112.996 25.7203 113.541 26.3427C114.185 27.077 114.842 27.8253 115.506 28.5946L117.619 31.0214C118.36 31.8677 119.171 32.7978 120.08 33.8189C120.22 33.9587 120.353 34.0287 120.493 34.0287C120.619 34.0287 120.696 33.9797 120.738 33.9378C120.801 33.8748 120.829 33.7979 120.829 33.707V32.6999C120.829 32.3292 120.829 31.9516 120.822 31.5739C120.822 31.1963 120.815 30.8326 120.815 30.4689V29.4758C120.815 28.7835 120.822 28.1331 120.836 27.5386C120.85 26.9372 120.871 26.4126 120.892 25.972C120.912 25.4965 120.933 25.0489 120.954 24.6293C120.982 24.1397 121.038 23.9299 121.08 23.832C121.192 23.5662 121.346 23.3774 121.556 23.2515C121.773 23.1187 122.066 23.0277 122.43 22.9788L122.584 22.9578V22.4682H118.304V22.4473Z" fill="#5E4637"/>
<path d="M121.01 48.4081C120.751 48.8417 120.5 49.2193 120.255 49.527C120.017 49.8278 119.765 50.0865 119.513 50.2963C119.262 50.4992 119.003 50.66 118.737 50.7719C118.471 50.8838 118.171 50.9607 117.849 51.0027C117.548 51.0447 117.261 51.0656 116.989 51.0796C116.709 51.0866 116.485 51.0936 116.31 51.0936C115.905 51.0936 115.52 51.0656 115.17 51.0027C114.772 50.9328 114.646 50.8279 114.611 50.7719C114.534 50.653 114.478 50.4572 114.457 50.1984C114.429 49.9047 114.415 49.597 114.401 49.2753C114.401 49.1704 114.401 49.0445 114.394 48.8906C114.394 48.7438 114.387 48.5899 114.387 48.4221V46.5618C114.387 46.3799 114.387 46.2261 114.401 46.1072H114.968C115.073 46.1072 115.17 46.1072 115.275 46.1142C115.38 46.1142 115.513 46.1282 115.667 46.1352C115.961 46.1561 116.226 46.2051 116.443 46.296C116.66 46.3799 116.849 46.4918 116.996 46.6177C117.171 46.7786 117.338 47.0233 117.499 47.359C117.667 47.6947 117.793 48.0304 117.877 48.3451L117.912 48.478H118.415V43.2398H117.905L117.877 43.3797C117.814 43.6594 117.744 43.9182 117.667 44.142C117.597 44.3588 117.499 44.5476 117.38 44.7015C117.261 44.8553 117.108 44.9952 116.919 45.1071C116.723 45.219 116.478 45.3169 116.177 45.3798C116.045 45.4078 115.884 45.4288 115.688 45.4428C115.485 45.4568 115.282 45.4708 115.079 45.4778C114.877 45.4847 114.695 45.4917 114.541 45.4917H114.401C114.401 45.4008 114.401 45.2679 114.394 45.1001C114.394 44.9322 114.387 44.7154 114.387 44.4497V43.4566C114.387 42.7852 114.394 42.1768 114.408 41.6662C114.422 41.2676 114.436 40.9809 114.45 40.792C114.541 40.778 114.667 40.7711 114.814 40.7641C115.779 40.7011 116.611 40.7501 117.241 40.834C117.821 40.9109 118.073 40.9879 118.185 41.0368C118.905 41.3865 119.695 42.0789 120.528 43.0999L120.618 43.2118L121.052 43.002L119.863 40.1836H110.841V40.6731L110.995 40.6941C111.275 40.7361 111.499 40.778 111.674 40.82C111.82 40.855 111.96 40.9459 112.1 41.0928C112.121 41.1137 112.163 41.1697 112.205 41.3166C112.24 41.4494 112.261 41.5963 112.282 41.7572C112.296 41.932 112.31 42.1138 112.31 42.3027C112.31 42.4985 112.317 42.6873 112.317 42.8691V46.7925C112.317 47.1003 112.317 47.401 112.31 47.6947L112.296 48.506C112.296 48.7578 112.289 48.9536 112.289 49.1004C112.289 49.2613 112.289 49.4291 112.275 49.59C112.268 49.7508 112.247 49.9117 112.219 50.0586C112.191 50.2054 112.163 50.3383 112.135 50.4502C112.107 50.5621 112.072 50.625 112.051 50.646C111.925 50.7929 111.758 50.9048 111.555 50.9887C111.345 51.0726 111.107 51.1426 110.862 51.1775L110.708 51.1985V51.6811H120.702L121.577 48.4151L121.101 48.2892L121.031 48.4081H121.01Z" fill="#5E4637"/>
<path d="M78.1886 25.6375C78.1886 25.9872 78.2515 26.3299 78.3774 26.6376C78.4963 26.9453 78.6641 27.232 78.86 27.4908C79.0628 27.7426 79.2936 27.9734 79.5593 28.1622C79.8251 28.351 80.1048 28.5049 80.3916 28.6098C80.6363 28.7007 80.8461 28.7776 81.021 28.8406C81.1958 28.8965 81.3637 28.9525 81.5245 29.0084C81.6924 29.0644 81.8672 29.1273 82.056 29.1902C82.2449 29.2532 82.4617 29.3301 82.7134 29.421C82.9582 29.5119 83.189 29.6099 83.4058 29.7218C83.6086 29.8267 83.7905 29.9525 83.9373 30.0994C84.0842 30.2463 84.2031 30.4141 84.287 30.6099C84.3709 30.8058 84.4129 31.0366 84.4129 31.2953C84.4129 31.9597 84.1961 32.4702 83.7485 32.8549C83.3009 33.2395 82.6994 33.4424 81.9651 33.4424C81.7133 33.4424 81.4406 33.4004 81.1678 33.3095C80.8881 33.2186 80.6573 33.1276 80.4825 33.0437C80.3146 32.9598 80.1398 32.8339 79.958 32.6661C79.7761 32.4982 79.5943 32.3024 79.4264 32.0786C79.2586 31.8548 79.0977 31.61 78.9579 31.3583C78.818 31.1065 78.6991 30.8407 78.6082 30.575L78.5662 30.4561H78.0977L78.1536 33.8969H78.5592L78.6152 33.827C78.6991 33.7151 78.79 33.6032 78.8949 33.4773C78.9369 33.4284 78.9649 33.3934 78.9858 33.3724C79.0138 33.3864 79.0488 33.4074 79.0977 33.4354C79.2306 33.5123 79.4194 33.5962 79.6712 33.6871C79.923 33.778 80.2447 33.855 80.6223 33.9179C81 33.9809 81.4546 34.0158 81.9791 34.0158C82.5945 34.0158 83.168 33.9459 83.6855 33.806C84.2101 33.6661 84.6716 33.4493 85.0493 33.1556C85.4339 32.8619 85.7347 32.5052 85.9515 32.0926C86.1683 31.673 86.2802 31.1974 86.2802 30.6799C86.2802 29.9106 86.0704 29.2532 85.6507 28.7357C85.2381 28.2181 84.6507 27.8265 83.9093 27.5537C83.7065 27.4838 83.5177 27.4139 83.3289 27.3509C83.147 27.288 82.9582 27.232 82.7834 27.1691C82.6085 27.1131 82.4267 27.0502 82.2449 26.9942C82.063 26.9313 81.8672 26.8614 81.6574 26.7774C81.1469 26.5886 80.7272 26.3369 80.4125 26.0291C80.1118 25.7284 79.958 25.3438 79.958 24.8402C79.958 24.5185 80.0139 24.2248 80.1258 23.973C80.2377 23.7282 80.3916 23.5114 80.5874 23.3436C80.7832 23.1757 81.021 23.0429 81.2867 22.9589C81.8952 22.7631 82.6435 22.7841 83.203 23.0568C83.5247 23.2107 83.8114 23.4205 84.0562 23.6653C84.308 23.9171 84.5318 24.2108 84.7276 24.5325C84.9234 24.8612 85.0843 25.1899 85.2032 25.5186L85.2451 25.6375H85.7207V22.4134H85.2731L85.2171 22.4904C85.1332 22.6093 85.0493 22.7281 84.9514 22.847C84.9234 22.882 84.8954 22.91 84.8814 22.931C84.8605 22.917 84.8395 22.903 84.8115 22.882C84.6926 22.7981 84.5178 22.7072 84.287 22.6093C84.0632 22.5113 83.7695 22.4204 83.4268 22.3435C83.0771 22.2666 82.6505 22.2246 82.1679 22.2246C81.6504 22.2246 81.1469 22.2945 80.6713 22.4274C80.1957 22.5603 79.7621 22.7701 79.3985 23.0568C79.0278 23.3436 78.7271 23.7003 78.5103 24.1269C78.2935 24.5535 78.1816 25.064 78.1816 25.6515L78.1886 25.6375Z" fill="#5E4637"/>
<path d="M65.1524 65.4661C65.2503 65.3612 65.3413 65.2493 65.4322 65.1374C66.1525 64.2842 66.768 63.3471 67.2645 62.347C67.2925 62.291 67.3205 62.2421 67.3484 62.1861C60.0541 73.278 43.6681 63.9765 39.2831 49.9264C36.4577 39.1282 38.5697 24.5606 40.0734 18.3712L40.43 16.9235C40.7098 15.7906 40.479 14.5667 39.7237 13.6645C38.6816 12.4197 36.9752 11.9791 35.4716 12.5106L34.6673 12.7973C33.0658 13.2449 30.8138 14.3079 28.8486 15.329C33.3945 13.3498 35.6184 17.0284 34.8701 21.5533C33.8141 27.9594 32.9888 35.6314 33.7931 42.9188C33.8141 43.0866 33.8281 43.2545 33.8491 43.4223C33.877 43.6531 33.912 43.8839 33.94 44.1147C33.9819 44.3944 34.0169 44.6812 34.0589 44.9539C34.1358 45.4365 34.2127 45.912 34.3036 46.3876C37.3808 62.396 43.2834 66.9698 50.4029 68.4944C56.3055 69.7602 61.3409 69.7882 65.1384 65.4661H65.1524Z" fill="url(#paint0_linear_373_697)"/>
<path d="M50.4237 68.495C45.9688 67.5439 41.9964 65.3968 38.8913 60.0188C37.024 56.7877 35.4784 52.3957 34.3245 46.3882C34.2335 45.9127 34.1496 45.4371 34.0797 44.9545C34.0377 44.6818 34.0027 44.3951 33.9608 44.1153C33.9258 43.8845 33.8978 43.6537 33.8699 43.423C33.8489 43.2551 33.8349 43.0873 33.8139 42.9194C33.0097 35.6321 33.8349 27.9601 34.8909 21.554C35.6392 17.0291 33.4153 13.3505 28.8694 15.3296C28.7086 15.3996 28.5547 15.4555 28.3939 15.5395C28.0162 15.7283 27.6106 15.9311 27.205 16.1409C27.135 16.1759 27.0721 16.2108 27.0021 16.2458L26.9742 16.2598L26.9112 16.2948C26.1489 16.7144 25.3237 17.1899 24.5894 17.6305L24.6803 17.6445C24.7712 17.6585 24.8551 17.6795 24.939 17.6935C25.009 17.7075 25.0859 17.7215 25.1558 17.7354C25.2188 17.7494 25.2747 17.7704 25.3377 17.7844C25.5335 17.8334 25.7223 17.8963 25.9111 17.9662C25.9741 17.9872 26.03 18.0152 26.093 18.0432C26.2119 18.0921 26.3308 18.1481 26.4497 18.204C26.4846 18.218 26.5196 18.232 26.5546 18.253C26.5825 18.267 26.6105 18.2879 26.6385 18.3019C26.8413 18.4068 27.0371 18.5187 27.2189 18.6516C27.2259 18.6586 27.2399 18.6656 27.2469 18.6726C27.6665 18.9593 28.0372 19.302 28.3659 19.6867C28.3869 19.7076 28.4009 19.7286 28.4219 19.7496C28.7296 20.1203 28.9953 20.5329 29.2051 20.9735C29.2261 21.0154 29.2401 21.0574 29.2611 21.0994C29.359 21.3162 29.4429 21.533 29.5129 21.7638C29.5129 21.7638 29.5129 21.7708 29.5129 21.7778C29.5828 22.0015 29.6317 22.2393 29.6667 22.4771C29.6737 22.5331 29.6807 22.589 29.6947 22.645C29.7227 22.8827 29.7506 23.1275 29.7506 23.3793C29.7506 24.1136 29.6038 24.82 29.345 25.4704C26.6734 54.0113 33.5761 70.5232 52.7526 70.5232C52.9135 70.5232 53.0603 70.5232 53.2212 70.5162C54.543 70.4952 55.7529 70.3833 56.8509 70.1875C59.4804 69.649 61.8443 68.474 63.7605 66.8585C60.1588 69.7888 55.634 69.628 50.4377 68.516L50.4237 68.495Z" fill="url(#paint1_linear_373_697)"/>
<path d="M21.6102 65.5841C25.8554 63.7098 35.8772 55.6322 42.7099 50.8486C46.2487 48.3658 50.326 46.6664 54.648 46.0579C60.8164 45.1907 64.3412 46.8412 66.3343 49.289C64.5719 46.6874 61.9004 44.6662 58.7323 43.5892C56.4454 42.8828 53.9417 42.6381 51.382 42.7779C42.5351 43.2605 30.3103 54.4573 27.1981 57.0729C22.4145 61.0942 18.4631 63.479 15.0712 64.2693C4.12623 66.8149 0 57.0239 0 57.0239C5.55292 70.3118 16.9385 67.6402 21.6032 65.5841H21.6102Z" fill="#ED1C2E"/>
<path d="M60.6555 47.996C60.9633 48.0309 61.264 48.0729 61.5507 48.1288C62.2151 48.2687 62.8235 48.4645 63.369 48.7093C64.1943 49.08 64.8867 49.5555 65.4741 50.0871C65.6 50.1989 66.0546 50.6745 66.0686 50.6885C67.5233 52.1711 68.4744 54.3951 68.6073 56.5701C68.5933 55.57 68.4674 54.507 68.2366 53.5699C67.9499 52.4019 67.5023 51.283 66.9148 50.2479C66.733 49.9262 66.5372 49.6045 66.3273 49.2968C64.3342 46.849 60.8024 45.1985 54.641 46.0657C50.319 46.6742 46.2417 48.3806 42.703 50.8563C35.8772 55.64 25.8484 63.7176 21.6032 65.5919C16.9385 67.648 5.55292 70.3265 0 57.0317C0.146866 61.9062 3.15412 70.5084 14.2949 70.5084C23.0579 70.5084 33.1427 62.5007 37.3878 58.7521C39.8566 56.5701 42.4931 54.57 45.3325 52.8775C47.3677 51.6676 49.221 50.7165 50.9134 49.9821C51.8925 49.5555 52.8157 49.2059 53.6899 48.9261C54.5641 48.6394 55.3893 48.4226 56.1586 48.2617C56.7391 48.1428 57.2916 48.0519 57.8231 47.996C58.3546 47.94 58.8512 47.912 59.3337 47.912C59.6554 47.912 59.9562 47.933 60.2499 47.954C60.2919 47.954 60.3408 47.954 60.3898 47.954C60.4737 47.961 60.5576 47.975 60.6485 47.982L60.6555 47.996Z" fill="url(#paint2_linear_373_697)"/>
<path d="M66.0756 50.6883C66.0756 50.6883 65.6 50.1987 65.4811 50.0868C64.8936 49.5553 64.1943 49.0797 63.376 48.7091C62.8305 48.4643 62.2221 48.2685 61.5577 48.1286C61.271 48.0726 60.9702 48.0307 60.6625 47.9957C60.5786 47.9887 60.4947 47.9747 60.4038 47.9677C60.3618 47.9677 60.3128 47.9677 60.2639 47.9677C59.9841 47.9468 59.6904 47.9258 59.3897 47.9258C59.3757 47.9258 59.3687 47.9258 59.3547 47.9258C58.8791 47.9258 58.3756 47.9538 57.8441 48.0097C57.3126 48.0657 56.7601 48.1566 56.1796 48.2755C55.4033 48.4363 54.5781 48.6531 53.7039 48.9399C52.8297 49.2266 51.9065 49.5763 50.9274 49.9959C51.8506 49.905 52.7038 49.9329 53.4941 50.0379C57.5783 50.5834 59.8722 53.4927 59.8722 56.388C59.8722 59.3603 57.2147 62.3676 52.3191 62.5144C51.1023 62.5494 49.7455 62.4095 48.2559 62.0459C52.431 64.8223 56.2356 65.8854 59.2848 65.7735C59.2918 65.7735 59.2988 65.7735 59.3058 65.7735C64.3901 65.7735 68.6073 61.5074 68.6073 56.5769C68.4744 54.4019 67.5232 52.1779 66.0686 50.6952L66.0756 50.6883Z" fill="url(#paint3_linear_373_697)"/>
<path d="M29.6875 22.6296C29.6805 22.5737 29.6735 22.5177 29.6596 22.4618C29.6246 22.224 29.5756 21.9932 29.5057 21.7624C29.5057 21.7624 29.5057 21.7554 29.5057 21.7485C29.4358 21.5177 29.3518 21.3009 29.2539 21.0841C29.2329 21.0421 29.219 21.0001 29.198 20.9582C28.9882 20.5176 28.7294 20.105 28.4147 19.7343C28.3937 19.7133 28.3797 19.6923 28.3587 19.6714C28.03 19.2867 27.6524 18.951 27.2398 18.6573C27.2328 18.6503 27.2188 18.6433 27.2118 18.6363C27.023 18.5104 26.8271 18.3985 26.6313 18.2866C26.5684 18.2517 26.5054 18.2167 26.4355 18.1887C26.3166 18.1328 26.1977 18.0768 26.0788 18.0279C26.0159 17.9999 25.9599 17.9789 25.897 17.9509C25.7082 17.881 25.5193 17.818 25.3235 17.7691C25.2606 17.7551 25.2046 17.7341 25.1417 17.7201C25.0718 17.7062 24.9948 17.6922 24.9249 17.6782C24.806 17.6572 24.6941 17.6292 24.5752 17.6152C24.4493 17.6852 17.9453 22.1051 17.9313 22.1191C7.62971 30.0289 0.943822 39.5542 0.272436 49.9117C0.0346533 53.5134 0.0136719 53.8631 0.0136719 55.9472C2.48941 60.4371 6.60864 63.3394 11.2174 63.2555C11.9587 63.2415 12.6861 63.1436 13.3924 62.9827C13.0637 62.696 12.742 62.4093 12.4623 62.1085C9.84668 59.3321 9.46902 55.7444 10.1334 51.1426C11.5391 41.3096 17.6026 34.0082 23.9458 29.1477C24.0437 29.0708 29.3448 25.4621 29.3448 25.4481C29.6036 24.7977 29.7505 24.0983 29.7505 23.357C29.7505 23.1052 29.7295 22.8674 29.6945 22.6227L29.6875 22.6296Z" fill="url(#paint4_linear_373_697)"/>
<defs>
<linearGradient id="paint0_linear_373_697" x1="44.899" y1="-1.12695" x2="48.4447" y2="42.9537" gradientUnits="userSpaceOnUse">
<stop stop-color="#F5EC48"/>
<stop offset="0.02" stop-color="#F6E540"/>
<stop offset="0.11" stop-color="#FBD42E"/>
<stop offset="0.19" stop-color="#FECA22"/>
<stop offset="0.28" stop-color="#FFC71F"/>
<stop offset="0.68" stop-color="#F5923D"/>
<stop offset="0.89" stop-color="#F06A3C"/>
<stop offset="1" stop-color="#EE403D"/>
</linearGradient>
<linearGradient id="paint1_linear_373_697" x1="44.4932" y1="18.6166" x2="43.528" y2="86.1189" gradientUnits="userSpaceOnUse">
<stop stop-color="#F5EC48"/>
<stop offset="0.02" stop-color="#F6E540"/>
<stop offset="0.11" stop-color="#FBD42E"/>
<stop offset="0.19" stop-color="#FECA22"/>
<stop offset="0.28" stop-color="#FFC71F"/>
<stop offset="0.68" stop-color="#F5923D"/>
<stop offset="0.89" stop-color="#F06A3C"/>
<stop offset="1" stop-color="#EE403D"/>
</linearGradient>
<linearGradient id="paint2_linear_373_697" x1="34.3106" y1="51.5068" x2="34.3106" y2="83.7682" gradientUnits="userSpaceOnUse">
<stop stop-color="#F5EC48"/>
<stop offset="0.02" stop-color="#F6E540"/>
<stop offset="0.11" stop-color="#FBD42E"/>
<stop offset="0.19" stop-color="#FECA22"/>
<stop offset="0.28" stop-color="#FFC71F"/>
<stop offset="0.68" stop-color="#F5923D"/>
<stop offset="0.89" stop-color="#F06A3C"/>
<stop offset="1" stop-color="#EE403D"/>
</linearGradient>
<linearGradient id="paint3_linear_373_697" x1="58.4385" y1="50.8141" x2="58.4385" y2="63.4586" gradientUnits="userSpaceOnUse">
<stop stop-color="#BD2226"/>
<stop offset="0.07" stop-color="#C32126"/>
<stop offset="0.16" stop-color="#D42126"/>
<stop offset="0.24" stop-color="#EA2127"/>
<stop offset="0.43" stop-color="#EA2326"/>
<stop offset="0.56" stop-color="#EB2D26"/>
<stop offset="0.68" stop-color="#EC3D25"/>
<stop offset="0.8" stop-color="#EF5323"/>
<stop offset="0.9" stop-color="#F17022"/>
<stop offset="0.99" stop-color="#F59120"/>
</linearGradient>
<linearGradient id="paint4_linear_373_697" x1="27.5125" y1="19.7553" x2="4.53154" y2="56.9822" gradientUnits="userSpaceOnUse">
<stop stop-color="#BC202E"/>
<stop offset="0.09" stop-color="#C2202D"/>
<stop offset="0.21" stop-color="#D3202A"/>
<stop offset="0.33" stop-color="#EA2127"/>
<stop offset="0.49" stop-color="#EA2326"/>
<stop offset="0.61" stop-color="#EB2D26"/>
<stop offset="0.72" stop-color="#EC3D25"/>
<stop offset="0.82" stop-color="#EF5323"/>
<stop offset="0.91" stop-color="#F17022"/>
<stop offset="0.99" stop-color="#F59120"/>
</linearGradient>
</defs>
</svg>
